{
	"zesto":{
		"-model":{
			"type":"string",
			"default":"DPM",
			"label":"model"
		},
		"-seed":{
			"type":"string",
			"default":"1",
			"label":"seed",
			"description":"random number generator seed (0 for timer seed)"
		},
		"-nice":{
			"type":"string",
			"default":"17",
			"label":"nice",
			"description":"simulator scheduling priority"
		},
		"-fastfwd":{
			"type":"string",
			"default":"200000000",
			"label":"fastfwd",
			"description":"number of inst's to skip before timing simulation"
		},
		"-warm:caches":{
			"type":"string",
			"default":"true",
			"label":"warm:caches",
			"description":"warm caches during fastfwd"
		},
		"-warm:bpred":{
			"type":"string",
			"default":"true",
			"label":"warm:bpred",
			"description":"warm bpred during fastfwd"
		},
		"-max:inst":{
			"type":"string",
			"default":"1000000000",
			"label":"max:inst",
			"description":"maximum number of inst's to execute"
		},
		"-max:uops":{
			"type":"string",
			"default":"0",
			"label":"max:uops",
			"description":"maximum number of uop's to execute"
		},
		"-bpred":{
			"type":"string",
			"default":"tage:TAGE5:5:2048:512:9:6:75",
			"label":"bpred",
			"description":"bpred configuration(s)"
		},
		"-bpred:fusion":{
			"type":"string",
			"default":"none",
			"label":"bpred:fusion",
			"description":"fusion algorithm for hybrid 2nd-level bpred"
		},
		"-bpred:btb":{
			"type":"string",
			"default":"btac:BTB:512:4:8:l",
			"label":"bpred:btb",
			"description":"branch target buffer configuration"
		},
		"-bpred:ibtb":{
			"type":"string",
			"default":"2levbtac:iBTB:1:8:1:128:4:8:l",
			"label":"bpred:ibtb",
			"description":"indirect branch target buffer configuration"
		},
		"-bpred:ras":{
			"type":"string",
			"default":"stack:RAS:16",
			"label":"bpred:ras",
			"description":"return address stack predictor configuration"
		},
		"-jeclear:delay":{
			"type":"string",
			"default":"1",
			"label":"jeclear:delay",
			"description":"additional latency from branch-exec to jeclear"
		},
		"-flush:drain":{
			"type":"string",
			"default":"true",
			"label":"flush:drain",
			"description":"use drain-flush after misprediction"
		},
		"-byteQ:size":{
			"type":"string",
			"default":"10",
			"label":"byteQ:size",
			"description":"number of entries in byteQ"
		},
		"-predecode:depth":{
			"type":"string",
			"default":"2",
			"label":"predecode:depth",
			"description":"number of stages in predecode pipe"
		},
		"-predecode:width":{
			"type":"string",
			"default":"6",
			"label":"predecode:width",
			"description":"width of predecode pipe (in Macro-ops)"
		},
		"-IQ:size":{
			"type":"string",
			"default":"18",
			"label":"IQ:size",
			"description":"size of instruction queue (in Macro-ops - placed between predecode and decode)"
		},
		"-decode:depth":{
			"type":"string",
			"default":"2",
			"label":"decode:depth",
			"description":"decode pipeline depth in stages"
		},
		"-decode:width":{
			"type":"string",
			"default":"6",
			"label":"decode:width",
			"description":"decode pipeline width in Macro-ops"
		},
		"-decode:targetstage":{
			"type":"string",
			"default":"1",
			"label":"decode:targetstage",
			"description":"stage of branch address calculator"
		},
		"-decoders":{
			"type":"string",
			"default":"4 4 1 1 1 1",
			"label":"decoders",
			"description":"maximum uops generated for each decoder (e.g., 4 1 1)"
		},
		"-fuse:all":{
			"type":"string",
			"default":"false",
			"label":"fuse:all"
		},
		"-MS:latency":{
			"type":"string",
			"default":"0",
			"label":"MS:latency",
			"description":"additional latency for accessing ucode sequencer"
		},
		"-uopQ:size":{
			"type":"string",
			"default":"24",
			"label":"uopQ:size",
			"description":"number of entries in uopQ"
		},
		"-alloc:depth":{
			"type":"string",
			"default":"1",
			"label":"alloc:depth",
			"description":"alloc pipeline depth in stages"
		},
		"-alloc:width":{
			"type":"string",
			"default":"6",
			"label":"alloc:width",
			"description":"alloc pipeline depth in Macro-ops"
		},
		"-rs:size":{
			"type":"string",
			"default":"96",
			"label":"rs:size",
			"description":"number of reservation station entries"
		},
		"-ldq:size":{
			"type":"string",
			"default":"96",
			"label":"ldq:size",
			"description":"number of load queue entries"
		},
		"-stq:size":{
			"type":"string",
			"default":"64",
			"label":"stq:size",
			"description":"number of load queue entries"
		},
		"-exec:width":{
			"type":"string",
			"default":"8",
			"label":"exec:width",
			"description":"maximum issues from RS per cycle (equal to num exec ports)"
		},
		"-exec:tornado_breaker":{
			"type":"string",
			"default":"true",
			"label":"exec:tornado_breaker",
			"description":"enable heuristic tornado breaker [D]"
		},
		"-exec:partial_throttle":{
			"type":"string",
			"default":"true",
			"label":"exec:partial_throttle",
			"description":"enable load-issue throttling on partial matches [D]"
		},
		"-payload:depth":{
			"type":"string",
			"default":"1",
			"label":"payload:depth",
			"description":"number of cycles for payload RAM access (schedule-to-exec delay)"
		},
		"-pb:ieu":{
			"type":"string",
			"default":"0 1       5 6 7",
			"label":"pb:ieu",
			"description":"IEU port binding"
		},
		"-pb:jeu":{
			"type":"string",
			"default":"0           6 7",
			"label":"pb:jeu",
			"description":"JEU port binding"
		},
		"-pb:imul":{
			"type":"string",
			"default":"1         6 7",
			"label":"pb:imul",
			"description":"IMUL port binding"
		},
		"-pb:idiv":{
			"type":"string",
			"default":"0             7",
			"label":"pb:idiv",
			"description":"IDIV port binding"
		},
		"-pb:shift":{
			"type":"string",
			"default":"5         0",
			"label":"pb:shift",
			"description":"SHIFT port binding"
		},
		"-pb:fadd":{
			"type":"string",
			"default":"5 6 7",
			"label":"pb:fadd",
			"description":"FADD port binding"
		},
		"-pb:fmul":{
			"type":"string",
			"default":"1         6 7",
			"label":"pb:fmul",
			"description":"FMUL port binding"
		},
		"-pb:fdiv":{
			"type":"string",
			"default":"0             7",
			"label":"pb:fdiv",
			"description":"FDIV port binding"
		},
		"-pb:fcplx":{
			"type":"string",
			"default":"0             7",
			"label":"pb:fcplx",
			"description":"FCPLX port binding"
		},
		"-pb:lda":{
			"type":"string",
			"default":"2     5",
			"label":"pb:lda",
			"description":"LD port binding"
		},
		"-pb:sta":{
			"type":"string",
			"default":"3",
			"label":"pb:sta",
			"description":"STA port binding"
		},
		"-pb:std":{
			"type":"string",
			"default":"4",
			"label":"pb:std",
			"description":"STD port binding"
		},
		"-ieu:lat":{
			"type":"string",
			"default":"1",
			"label":"ieu:lat",
			"description":"IEU execution latency"
		},
		"-ieu:rate":{
			"type":"string",
			"default":"1",
			"label":"ieu:rate",
			"description":"IEU execution issue rate"
		},
		"-jeu:lat":{
			"type":"string",
			"default":"1",
			"label":"jeu:lat",
			"description":"JEU execution latency"
		},
		"-jeu:rate":{
			"type":"string",
			"default":"1",
			"label":"jeu:rate",
			"description":"JEU execution issue rate"
		},
		"-imul:lat":{
			"type":"string",
			"default":"1",
			"label":"imul:lat",
			"description":"IMUL execution latency"
		},
		"-imul:rate":{
			"type":"string",
			"default":"1",
			"label":"imul:rate",
			"description":"IMUL execution issue rate"
		},
		"-idiv:lat":{
			"type":"string",
			"default":"3",
			"label":"idiv:lat",
			"description":"IDIV execution latency"
		},
		"-idiv:rate":{
			"type":"string",
			"default":"1",
			"label":"idiv:rate",
			"description":"IDIV execution issue rate"
		},
		"-shift:lat":{
			"type":"string",
			"default":"1",
			"label":"shift:lat",
			"description":"SHIFT execution latency"
		},
		"-shift:rate":{
			"type":"string",
			"default":"1",
			"label":"shift:rate",
			"description":"SHIFT execution issue rate"
		},
		"-fadd:lat":{
			"type":"string",
			"default":"1",
			"label":"fadd:lat",
			"description":"FADD execution latency"
		},
		"-fadd:rate":{
			"type":"string",
			"default":"1",
			"label":"fadd:rate",
			"description":"FADD execution issue rate"
		},
		"-fmul:lat":{
			"type":"string",
			"default":"1",
			"label":"fmul:lat",
			"description":"FMUL execution latency"
		},
		"-fmul:rate":{
			"type":"string",
			"default":"1",
			"label":"fmul:rate",
			"description":"FMUL execution issue rate"
		},
		"-fdiv:lat":{
			"type":"string",
			"default":"10",
			"label":"fdiv:lat",
			"description":"FDIV execution latency"
		},
		"-fdiv:rate":{
			"type":"string",
			"default":"2",
			"label":"fdiv:rate",
			"description":"FDIV execution issue rate"
		},
		"-fcplx:lat":{
			"type":"string",
			"default":"15",
			"label":"fcplx:lat",
			"description":"FCPLX execution latency"
		},
		"-fcplx:rate":{
			"type":"string",
			"default":"5",
			"label":"fcplx:rate",
			"description":"FCPLX execution issue rate"
		},
		"-lda:lat":{
			"type":"string",
			"default":"1",
			"label":"lda:lat",
			"description":"LD-agen execution latency"
		},
		"-lda:rate":{
			"type":"string",
			"default":"1",
			"label":"lda:rate",
			"description":"LD-agen execution issue rate"
		},
		"-sta:lat":{
			"type":"string",
			"default":"1",
			"label":"sta:lat",
			"description":"ST-agen execution latency"
		},
		"-sta:rate":{
			"type":"string",
			"default":"1",
			"label":"sta:rate",
			"description":"ST-agen execution issue rate"
		},
		"-std:lat":{
			"type":"string",
			"default":"1",
			"label":"std:lat",
			"description":"ST-data execution latency"
		},
		"-std:rate":{
			"type":"string",
			"default":"1",
			"label":"std:rate",
			"description":"ST-data execution latency"
		},
		"-memdep":{
			"type":"string",
			"default":"none",
			"label":"memdep",
			"description":"memory dependence predictor configuration"
		},
		"-rob:size":{
			"type":"string",
			"default":"256",
			"label":"rob:size",
			"description":"number of reorder buffer entries"
		},
		"-commit:width":{
			"type":"string",
			"default":"10",
			"label":"commit:width",
			"description":"maximum number of uops committed per cycle"
		}
	},

"manifold":
{
    "simulation_stop":{
      "type": "long",
      "default": "1300000",
      "label": "Cycles to run simulation for; must end with L"
    },
    "clock_frequency":{
      "type": "int",
      "default": 1000,
      "label": "Clock frequency, in MHz"
    },

    "network":{
        "topology":{
          "type": "string",
          "default": "TORUS",
          "label": "Topology"
        },
        "x_dimension":{
          "type": "int",
          "default": 2,
          "label": "X dimension"
        },
        "y_dimension":{
          "type": "int",
          "default": 2,
          "label": "Y dimension"
        },
        "num_vcs":{
          "type": "int",
          "default": 4,
          "label": "Number of VCS"
        },
        "credits":{
          "type": "int",
          "default": 6,
          "label": "Credits"
        },
        "link_width":{
          "type": "int",
          "default": 128,
          "label": "Link width"
        },
        "ni_up_credits":{
          "type": "int",
          "default": 20,
          "label": "Network Interface Up Credits",
          "description": "credits for network interface sending to terminal"
        },
        "ni_up_buffer":{
          "type": "int",
          "default": 5,
          "label": "Network interface output buffer size",
          "description": "network interface's output buffer (to terminal) size"
        },
        "coh_msg_type":{
          "type": "int",
          "default": 123,
          "label": "COH Message Type",
          "description": "message types"
        },
        "mem_msg_type":{
          "type": "int",
          "default": 456,
          "label": "Memory Message Type"
        },
        "credit_msg_type":{
          "type": "int",
          "default": 789,
          "label": "Credit Message Type"
        }
    },

    "processor":{
        "node_idx":{
          "type": "array",
          "default": "0 1",
          "label": "Node IDs"
        }
    },

    "l1_cache":{
        "name":{
          "type": "string",
          "default": "L1",
          "label": "Cache name"
        },
        "type":{
          "type": "string",
          "default": "DATA",
          "label": "Cache type"
        },
        "size":{
          "type": "hex",
          "default": "0x4000",
          "label": "Cache size"
        },
        "assoc":{
          "type": "int",
          "default": 4,
          "label": "Cache associativity"
        },
        "block_size":{
          "type": "int",
          "default": 32,
          "label": "Cache block size"
        },
        "hit_time":{
          "type": "int",
          "default": 2,
          "label": "Cache hit time"
        },
        "lookup_time":{
          "type": "int",
          "default": 5,
          "label": "Cache lookup time"
        },
        "replacement_policy":{
          "type": "string",
          "default": "LRU",
          "label": "Cache replacement policy"
        },
        "mshr_size":{
          "type": "int",
          "default": 8,
          "label": "MSHR size"
        },
        "downstream_credits":{
          "type": "int",
          "default": 20,
          "label": "Cache downstream credits",
          "description": "credits for sending to network"
        }
    },

    "l2_cache":
    {
        "name":{
          "type":"string",
          "default":"L2",
          "label":"Cache name"
        },
        "type":{
          "type":"string",
          "default":"DATA",
          "label":"Cache type"
        },
        "size":{
          "type":"hex",
          "default":"0x8000",
          "label":"Cache size"
        },
        "assoc":{
          "type":"int",
          "default":8,
          "label":"Cache associativity"
        },
        "block_size":{
          "type":"int",
          "default":32,
          "label":"Cache block size"
        },
        "hit_time":{
          "type":"int",
          "default":2,
          "label":"Cache hit time"
        },
        "lookup_time":{
          "type":"int",
          "default":5,
          "label":"Cache lookup time"
        },
        "replacement_policy":{
          "type":"string",
          "default":"LRU",
          "label":"Cache replacement policy"
        },
        "mshr_size":{
          "type":"int",
          "default":16,
          "label":"MSHR size"
        },
        "node_idx":{
          "type":"array",
          "default":"2",
          "label":"Cache node IDs"
        },
        "downstream_credits":{
          "type":"int",
          "default":20,
          "label":"Cache downstream credits",
          "description":"credits for sending to network"
        }
    },

    "mc":
    {
        "node_idx":{
          "type":"array",
          "default":"3",
          "label":"Node IDs"
        },

        "downstream_credits":{
          "type":"int",
          "default":10,
          "label":"Downstream credits"
        }
    }
  },


  "qsim":
  {
    "statefile":{
      "type":"string",
      "default":"state.2",
      "label":"QSIM State File",
      "description":"Suffix used to determine number of cores"
    },

    "benchmark":{
      "type":"string",
      "default":"barnes.tar",
      "label":"QSIM Benchmark"
    },

    "port":{
      "type":"int",
      "default":"20000",
      "label":"QSIM Port",
      "description":"TCP port to use for QSIM"
    },

    "manifold":{
      "type":"file",
      "default":"smp/QsimClient/smp_l1l2",
      "label":"Manifold binary",
      "description":"Manifold binary to run"
    }
  }


}

